<?xml version="1.0" encoding="UTF-8"?>
<svg xmlns="http://www.w3.org/2000/svg" xmlns:xlink="http://www.w3.org/1999/xlink" width="984.3125pt" height="1619.265625pt" viewBox="0 0 984.3125 1619.265625" version="1.1">
<defs>
<g>
<symbol overflow="visible" id="glyph0-0">
<path style="stroke:none;" d="M 23.039062 -97.28125 L 14.847656 0 L 60.929688 0 L 56.0625 -70.65625 L 73.214844 -85.503906 L 104.960938 -49.40625 L 99.070312 0 L 143.359375 0 L 139.777344 -52.734375 L 89.089844 -99.070312 L 125.695312 -130.816406 L 148.480469 -156.160156 L 113.40625 -156.160156 L 56.320312 -119.039062 L 58.625 -230.398438 L 12.800781 -230.398438 Z M 23.039062 -97.28125 "/>
</symbol>
<symbol overflow="visible" id="glyph0-1">
<path style="stroke:none;" d="M 14.59375 0 L 73.472656 0 L 61.183594 -35.839844 L 61.183594 -105.214844 L 68.097656 -155.136719 L 22.273438 -155.136719 L 24.832031 -105.214844 Z M 12.800781 -226.304688 L 17.921875 -182.785156 L 70.144531 -182.785156 L 75.265625 -226.304688 Z M 12.800781 -226.304688 "/>
</symbol>
<symbol overflow="visible" id="glyph0-2">
<path style="stroke:none;" d="M 29.441406 0 L 87.039062 0 L 76.800781 -44.542969 L 73.984375 -120.574219 L 104.960938 -122.367188 L 99.839844 -153.601562 L 72.703125 -153.601562 L 71.167969 -192.511719 L 107.519531 -200.191406 L 107.519531 -233.984375 L 81.664062 -231.9375 L 50.945312 -187.390625 L 42.238281 -153.601562 L 7.679688 -153.601562 L 7.679688 -112.128906 L 37.121094 -118.527344 L 37.121094 -71.679688 Z M 29.441406 0 "/>
</symbol>
<symbol overflow="visible" id="glyph0-3">
<path style="stroke:none;" d="M 10.238281 0 L 186.878906 0 L 186.878906 -71.679688 L 135.679688 -49.921875 L 87.296875 -37.121094 L 192 -138.238281 L 192 -153.601562 L 15.359375 -153.601562 L 15.359375 -83.710938 L 70.144531 -107.007812 L 133.375 -121.601562 Z M 10.238281 0 "/>
</symbol>
<symbol overflow="visible" id="glyph0-4">
<path style="stroke:none;" d="M 34.558594 0 L 70.910156 0 L 114.433594 -9.214844 L 113.664062 0 L 168.960938 0 L 160 -54.015625 L 157.441406 -155.136719 L 123.648438 -155.136719 L 120.0625 -69.375 L 116.992188 -35.328125 L 67.328125 -46.847656 L 65.792969 -69.375 L 54.527344 -155.136719 L 23.039062 -155.136719 L 23.039062 -35.839844 Z M 34.558594 0 "/>
</symbol>
<symbol overflow="visible" id="glyph0-5">
<path style="stroke:none;" d="M 7.679688 -112.128906 L 30.464844 -116.992188 L 30.464844 -70.65625 L 20.480469 0 L 92.929688 0 L 68.863281 -43.519531 L 64.769531 -120.320312 L 102.398438 -122.367188 L 97.28125 -153.601562 L 64.769531 -153.601562 L 68.863281 -199.679688 L 20.222656 -194.558594 L 28.160156 -153.601562 L 7.679688 -153.601562 Z M 7.679688 -112.128906 "/>
</symbol>
<symbol overflow="visible" id="glyph0-6">
<path style="stroke:none;" d="M 73.472656 0 L 121.855469 -66.558594 L 125.441406 -39.167969 L 125.441406 0 L 173.3125 0 L 256 -81.921875 L 249.855469 -155.136719 L 216.832031 -155.136719 L 213.246094 -75.519531 L 168.449219 -41.472656 L 164.863281 -71.425781 L 151.039062 -117.761719 L 115.457031 -117.761719 L 117.246094 -104.191406 L 67.839844 -46.847656 L 65.023438 -71.425781 L 44.289062 -155.136719 L 12.800781 -155.136719 L 25.601562 -39.167969 L 25.601562 0 Z M 73.472656 0 "/>
</symbol>
<symbol overflow="visible" id="glyph0-7">
<path style="stroke:none;" d="M 122.878906 0 L 133.121094 -20.480469 L 56.320312 -128.257812 L 92.414062 -122.878906 L 133.121094 -102.398438 L 133.121094 -153.601562 L 43.265625 -153.601562 L 22.785156 -120.320312 L 72.703125 -38.910156 L 15.359375 -56.320312 L 7.679688 0 Z M 122.878906 0 "/>
</symbol>
<symbol overflow="visible" id="glyph0-8">
<path style="stroke:none;" d="M 153.601562 38.398438 L 144.894531 -69.121094 L 142.335938 -155.648438 L 105.984375 -155.648438 L 20.992188 -102.65625 L 12.800781 0 L 67.839844 0 L 109.3125 -52.222656 L 109.3125 -25.34375 L 104.191406 36.351562 L 64.257812 48.128906 L 23.039062 30.207031 L 23.039062 88.832031 L 81.152344 88.832031 Z M 50.175781 -77.824219 L 109.3125 -124.160156 L 109.3125 -88.320312 L 52.734375 -31.488281 Z M 50.175781 -77.824219 "/>
</symbol>
<symbol overflow="visible" id="glyph0-9">
<path style="stroke:none;" d="M 68.351562 76.800781 L 60.160156 6.398438 L 60.160156 -8.960938 L 82.6875 0.511719 L 153.601562 -52.992188 L 145.40625 -155.648438 L 106.238281 -155.648438 L 61.183594 -116.480469 L 44.289062 -155.648438 L 15.359375 -155.648438 L 20.480469 -86.527344 L 15.359375 19.96875 L 10.238281 76.800781 Z M 59.648438 -68.863281 L 118.785156 -129.28125 L 113.664062 -65.023438 L 59.902344 -33.28125 Z M 59.648438 -68.863281 "/>
</symbol>
<symbol overflow="visible" id="glyph0-10">
<path style="stroke:none;" d="M 73.472656 0 L 68.863281 -69.886719 L 130.558594 -125.441406 L 130.558594 -156.160156 L 68.351562 -117.503906 L 44.289062 -155.136719 L 12.800781 -155.136719 L 30.71875 -98.046875 L 25.601562 0 Z M 73.472656 0 "/>
</symbol>
<symbol overflow="visible" id="glyph0-11">
<path style="stroke:none;" d="M 34.558594 0 L 70.910156 0 L 116.992188 -9.726562 L 114.433594 28.671875 L 79.871094 32.769531 L 44.542969 32.769531 L 59.902344 88.832031 L 168.960938 38.398438 L 161.28125 -54.015625 L 158.71875 -155.136719 L 124.929688 -155.136719 L 121.34375 -69.375 L 118.785156 -34.816406 L 67.328125 -46.847656 L 65.792969 -69.375 L 54.527344 -155.136719 L 23.039062 -155.136719 L 23.039062 -35.839844 Z M 34.558594 0 "/>
</symbol>
<symbol overflow="visible" id="glyph0-12">
<path style="stroke:none;" d="M 20.480469 -153.601562 L 20.480469 -70.65625 L 10.496094 0 L 81.921875 0 L 81.921875 -51.199219 L 58.878906 -40.960938 L 53.761719 -153.601562 L 58.878906 -230.398438 L 10.238281 -230.398438 Z M 20.480469 -153.601562 "/>
</symbol>
<symbol overflow="visible" id="glyph0-13">
<path style="stroke:none;" d="M 134.910156 -156.160156 L 97.28125 -156.160156 L 12.800781 -114.6875 L 19.199219 -2.304688 L 67.328125 -0.511719 L 97.28125 -31.230469 L 90.113281 86.785156 L 143.871094 86.785156 L 168.960938 55.550781 L 140.542969 40.703125 L 137.472656 0 Z M 39.679688 -90.625 L 100.351562 -128 L 100.097656 -75.265625 L 99.585938 -67.328125 L 54.015625 -44.289062 Z M 39.679688 -90.625 "/>
</symbol>
<symbol overflow="visible" id="glyph0-14">
<path style="stroke:none;" d="M 70.910156 0 L 66.304688 -68.097656 L 127.230469 -118.527344 L 125.183594 -69.375 L 118.785156 0 L 176.640625 0 L 168.703125 -69.375 L 162.558594 -155.136719 L 124.160156 -155.136719 L 64.511719 -116.480469 L 65.792969 -194.304688 L 41.726562 -231.9375 L 10.238281 -231.9375 L 23.039062 -167.167969 L 23.039062 0 Z M 70.910156 0 "/>
</symbol>
<symbol overflow="visible" id="glyph0-15">
<path style="stroke:none;" d="M 153.601562 0 L 106.753906 -71.425781 L 102.910156 -76.800781 L 150.527344 -108.03125 L 150.527344 -155.136719 L 113.152344 -155.136719 L 107.519531 -105.214844 L 90.367188 -93.441406 L 44.800781 -155.136719 L 12.800781 -155.136719 L 57.601562 -79.359375 L 16.382812 -52.734375 L 12.800781 0 L 56.320312 0 L 50.6875 -47.617188 L 68.863281 -60.160156 L 76.542969 -46.847656 L 99.070312 0 Z M 153.601562 0 "/>
</symbol>
<symbol overflow="visible" id="glyph0-16">
<path style="stroke:none;" d="M 73.472656 0 L 68.609375 -73.726562 L 130.046875 -125.953125 L 127.742188 -69.375 L 121.34375 0 L 179.199219 0 L 171.265625 -69.375 L 165.121094 -155.136719 L 126.71875 -155.136719 L 68.351562 -117.503906 L 44.289062 -155.136719 L 12.800781 -155.136719 L 25.601562 -90.367188 L 25.601562 0 Z M 73.472656 0 "/>
</symbol>
<symbol overflow="visible" id="glyph0-17">
<path style="stroke:none;" d="M 73.472656 0 L 68.609375 -74.238281 L 124.929688 -125.183594 L 122.625 -69.375 L 116.222656 0 L 174.078125 0 L 166.144531 -69.375 L 165.632812 -75.777344 L 224.769531 -125.953125 L 222.464844 -69.375 L 216.0625 0 L 273.921875 0 L 265.984375 -69.375 L 259.839844 -155.136719 L 221.441406 -155.136719 L 163.070312 -117.503906 L 162.816406 -116.992188 L 160 -155.136719 L 121.601562 -155.136719 L 68.351562 -117.503906 L 44.289062 -155.136719 L 12.800781 -155.136719 L 25.601562 -90.367188 L 25.601562 0 Z M 73.472656 0 "/>
</symbol>
<symbol overflow="visible" id="glyph0-18">
<path style="stroke:none;" d="M 12.800781 0 L 67.839844 0 L 107.777344 -66.304688 L 99.328125 0 L 156.160156 0 L 147.457031 -69.121094 L 142.335938 -155.648438 L 105.984375 -155.648438 L 20.992188 -102.65625 Z M 50.175781 -77.824219 L 109.3125 -124.160156 L 108.289062 -87.296875 L 52.734375 -31.488281 Z M 50.175781 -77.824219 "/>
</symbol>
<symbol overflow="visible" id="glyph0-19">
<path style="stroke:none;" d="M 110.078125 -154.878906 L 48.640625 -154.878906 L 25.601562 -107.519531 L 12.800781 -43.519531 L 46.078125 1.023438 L 112.640625 1.023438 L 145.921875 -43.519531 L 133.121094 -107.519531 Z M 52.480469 -48.640625 L 58.878906 -112.640625 L 99.839844 -112.640625 L 106.238281 -48.640625 Z M 52.480469 -48.640625 "/>
</symbol>
<symbol overflow="visible" id="glyph0-20">
<path style="stroke:none;" d="M 78.847656 -121.855469 L 116.222656 -100.097656 L 47.105469 -69.886719 L 45.3125 -88.574219 Z M 12.800781 0 L 133.121094 0 L 133.121094 -58.625 L 50.945312 -25.601562 L 48.894531 -49.921875 L 138.238281 -87.808594 L 128 -153.601562 L 80.894531 -153.601562 L 12.800781 -99.070312 Z M 12.800781 0 "/>
</symbol>
<symbol overflow="visible" id="glyph0-21">
<path style="stroke:none;" d="M 73.472656 0 L 161.28125 -81.921875 L 155.136719 -155.136719 L 121.34375 -155.136719 L 117.761719 -76.800781 L 68.609375 -41.472656 L 65.023438 -71.425781 L 44.289062 -155.136719 L 12.800781 -155.136719 L 25.601562 -39.167969 L 25.601562 0 Z M 73.472656 0 "/>
</symbol>
<symbol overflow="visible" id="glyph0-22">
<path style="stroke:none;" d="M 63.488281 51.199219 L 75.007812 30.464844 L 60.671875 -35.839844 L 60.671875 -105.214844 L 66.304688 -155.136719 L 17.921875 -155.136719 L 23.039062 -105.214844 L 23.039062 17.921875 L -24.320312 2.558594 L -24.320312 51.199219 Z M 8.449219 -226.304688 L 13.566406 -182.785156 L 68.351562 -182.785156 L 73.472656 -226.304688 Z M 8.449219 -226.304688 "/>
</symbol>
<symbol overflow="visible" id="glyph0-23">
<path style="stroke:none;" d="M 109.3125 -124.160156 L 108.289062 -87.039062 L 52.734375 -31.488281 L 50.175781 -77.824219 Z M 12.800781 0 L 70.398438 0 L 105.726562 -49.921875 L 99.328125 0 L 156.160156 0 L 147.457031 -69.121094 L 142.335938 -142.078125 L 144.894531 -232.449219 L 99.070312 -232.449219 L 108.800781 -145.664062 L 83.710938 -156.160156 L 20.992188 -102.65625 Z M 12.800781 0 "/>
</symbol>
<symbol overflow="visible" id="glyph0-24">
<path style="stroke:none;" d="M 128 -26.625 L 128 -45.3125 L 50.945312 -40.960938 L 57.34375 -110.078125 L 95.742188 -115.199219 L 128 -122.878906 L 105.984375 -154.878906 L 46.078125 -154.878906 L 23.039062 -107.519531 L 12.800781 -43.519531 L 43.519531 1.023438 L 108.542969 1.023438 Z M 128 -26.625 "/>
</symbol>
<symbol overflow="visible" id="glyph0-25">
<path style="stroke:none;" d="M 23.039062 -102.65625 L 14.847656 0 L 106.753906 0 L 151.039062 -25.601562 L 145.921875 -156.160156 L 102.65625 -156.160156 L 56.574219 -125.183594 L 58.625 -230.398438 L 12.800781 -230.398438 Z M 54.785156 -37.121094 L 56.0625 -70.65625 L 118.015625 -128.257812 L 114.945312 -84.222656 L 107.007812 -29.695312 Z M 54.785156 -37.121094 "/>
</symbol>
</g>
</defs>
<g id="surface1">
<rect x="0" y="0" width="984.3125" height="1619.265625" style="fill:rgb(13.333333%,20%,13.333333%);fill-opacity:1;stroke:none;"/>
<g style="fill:rgb(80%,86.666667%,20%);fill-opacity:1;">
  <use xlink:href="#glyph0-0" x="16" y="246.40625"/>
  <use xlink:href="#glyph0-1" x="167.046875" y="246.40625"/>
  <use xlink:href="#glyph0-2" x="252.8125" y="246.40625"/>
  <use xlink:href="#glyph0-3" x="362.890625" y="246.40625"/>
  <use xlink:href="#glyph0-4" x="567.6875" y="246.40625"/>
  <use xlink:href="#glyph0-5" x="749.453125" y="246.40625"/>
</g>
<g style="fill:rgb(80%,86.666667%,20%);fill-opacity:1;">
  <use xlink:href="#glyph0-6" x="16" y="563.859375"/>
  <use xlink:href="#glyph0-7" x="277.125" y="563.859375"/>
  <use xlink:href="#glyph0-8" x="417.921875" y="563.859375"/>
  <use xlink:href="#glyph0-9" x="583.8125" y="563.859375"/>
  <use xlink:href="#glyph0-10" x="750.21875" y="563.859375"/>
</g>
<g style="fill:rgb(80%,86.666667%,20%);fill-opacity:1;">
  <use xlink:href="#glyph0-11" x="16" y="881.3125"/>
  <use xlink:href="#glyph0-12" x="198.015625" y="881.3125"/>
  <use xlink:href="#glyph0-13" x="275.84375" y="881.3125"/>
  <use xlink:href="#glyph0-14" x="433.28125" y="881.3125"/>
  <use xlink:href="#glyph0-15" x="622.71875" y="881.3125"/>
</g>
<g style="fill:rgb(80%,86.666667%,20%);fill-opacity:1;">
  <use xlink:href="#glyph0-16" x="16" y="1198.765625"/>
  <use xlink:href="#glyph0-17" x="208" y="1198.765625"/>
  <use xlink:href="#glyph0-18" x="494.71875" y="1198.765625"/>
  <use xlink:href="#glyph0-19" x="663.671875" y="1198.765625"/>
  <use xlink:href="#glyph0-20" x="822.390625" y="1198.765625"/>
</g>
<g style="fill:rgb(80%,86.666667%,20%);fill-opacity:1;">
  <use xlink:href="#glyph0-21" x="16" y="1516.21875"/>
  <use xlink:href="#glyph0-22" x="182.40625" y="1516.21875"/>
  <use xlink:href="#glyph0-23" x="267.65625" y="1516.21875"/>
  <use xlink:href="#glyph0-24" x="436.609375" y="1516.21875"/>
  <use xlink:href="#glyph0-25" x="572.296875" y="1516.21875"/>
</g>
</g>
</svg>
